<?xml version="1.0" encoding="utf-8"?>
<!-- Generator: Adobe Illustrator 24.0.3, SVG Export Plug-In . SVG Version: 6.00 Build 0)  -->
<svg version="1.1" id="Layer_1" xmlns="http://www.w3.org/2000/svg" xmlns:xlink="http://www.w3.org/1999/xlink" x="0px" y="0px"
	 viewBox="0 0 225 225" style="enable-background:new 0 0 225 225;" xml:space="preserve">
<style type="text/css">
	.st0{fill:#FFFFFF;}
</style>
<path class="st0" d="M106,0c4.3,0,8.7,0,13,0c2.9,0.4,5.9,0.8,8.8,1.2c44.8,6,82.3,39.4,93.1,83.3c2,8,2.7,16.3,4.1,24.4
	c0,3.3,0,6.7,0,10c-0.3,1.3-0.8,2.5-0.9,3.8c-4,45.7-35.8,84.5-79.8,97.1c-8.2,2.4-16.8,3.4-25.3,5.1c-4.3,0-8.7,0-13,0
	c-2.9-0.4-5.9-0.8-8.8-1.2c-44.7-5.8-82.3-39.3-93.3-83.3c-1.8-7-2.6-14.3-3.9-21.5c0-5,0-10,0-15c0.4-2.6,0.8-5.2,1.3-7.8
	C9.8,50.2,36,19.4,80.7,5.1C88.8,2.4,97.6,1.6,106,0z M180.4,91.5c-0.3-0.5-0.5-1.1-0.8-1.6c-1.8,0-3.6,0-5.4,0
	c-13.3,0-26.6-0.2-40,0.1c-4.5,0.1-6.2-1.4-7.5-5.6c-3.9-13-8.3-25.9-12.6-38.8c-0.5-1.6-1.2-3.1-2.5-6.1c-1.1,2.9-1.7,4.2-2.1,5.5
	c-4.5,13.7-9.1,27.4-13.4,41.2C95.3,89,94,89.9,91,89.9c-14-0.2-28-0.1-42-0.1c-1.7,0-3.4,0.2-5.2,0.3c-0.1,0.4-0.3,0.8-0.4,1.2
	c1.5,1.2,2.9,2.4,4.4,3.5c11,8,22,16.1,33.2,24c2.8,2,3.4,3.7,2.3,7c-4.4,13-8.6,26.2-12.8,39.3c-0.6,1.8-1.1,3.6-1.6,5.4
	c0.4,0.3,0.7,0.5,1.1,0.8c1.5-0.9,3-1.7,4.4-2.7c11-8,22.2-15.9,33-24.2c3.5-2.7,5.7-2.3,9,0.2c10.9,8.2,22,16.1,33.1,24.1
	c1.3,1,2.8,1.7,4.2,2.6c0.4-0.3,0.7-0.6,1.1-0.9c-5.2-16.2-10.4-32.4-15.7-48.7C153,111.5,166.7,101.5,180.4,91.5z M57.9,178.6
	c-26.1-23.7-35.5-52.4-28.7-86.4c-4.5-1.4-8.6-2.7-12.6-4C5.9,123.7,21.1,168,50.2,189.1C52.8,185.6,55.3,182.2,57.9,178.6z
	 M119.1,27c1.7,0.4,3,0.7,4.3,0.9c10.9,1.2,21,4.7,30.6,10c16,9,27.9,21.9,35.9,38.4c0.7,1.5,2.7,3.7,3.7,3.5
	c3.8-0.7,7.4-2.3,11.1-3.5c-11.3-34-57.6-67.4-85.7-62.1c0,2.9,0,5.9,0,8.9C119,24.3,119.1,25.5,119.1,27z M33.2,80
	C47.9,48.6,72,31.2,105.6,27.1c0-4.7,0-9,0-13.4c-39,1.4-74.5,30.8-84.8,62.1C24.8,77.2,28.9,78.5,33.2,80z M68.5,186
	c-2.8,3.8-5.3,7.3-7.8,10.7c31.1,21,76.5,19.3,104.9-1.1c-1.2-1.7-2.4-3.4-3.7-5.2c-1.3-1.8-2.7-3.7-4-5.4
	C128.2,202,98.6,202.3,68.5,186z M195.8,93c3.5,15.7,2.9,30.9-2,45.9c-4.9,15-13.6,27.6-25.4,38.3c2.8,3.8,5.3,7.3,7.9,10.8
	c31.6-24.9,41.8-69.9,32.1-99.1C204.3,90.2,200.2,91.5,195.8,93z"/>
</svg>
